// factorial
class Demo{
        public static void main(String[] args){
                int N=6;
                int fact=1;
                for (int i=1;i<=N;N--){
                        fact=fact*N;
                }
                        System.out.println(fact);

        }
}
