Print:--

1
2 3
3 4 5
4 5 6 7

Code:---

class demo{
        public static void main(String[] args){
                int num=1;
                for(int i=1;i<=4;i++){
                        int num1=i;
                        for(int j=1;j<=i;j++){
                                System.out.print(num1 + " ");
                                num1++;

                        }
                        System.out.println();


                }
         }

}