class SwitchDemo{
        public static void main (String[] args){

                int ch=65;
                switch(ch) {

                        case 'A':{			//Ascii value
                                       System.out.println("one");
                                       break;
                        }
                        case 1:{
                                System.out.println("Two");
                                break;
                        }
                        case 3:{
                                       System .out.println("Three");
                                       break;
                        }
                        case 4:{
                                       System.out.println("Four");
                                       break;
                        }
                        case 5:{
                                       System.out.println("Five");
                                       break;
                        }
                        default: {
                                System.out.println(" All Case false");
                        }
                }
                System.out.println("After Switch");
        }



}


one
After Switch