import java.io.*;
class Demo{

        public static void main(String[] args)throws IOException{

        BufferedReader br=new BufferedReader(new InputStreamReader(System.in));

                System.out.println("Enter lower limit");

                int Lowerlimit=Integer.parseInt(br.readLine());
                System.out.println("Enter Upper limit");
                int upperlimit=Integer.parseInt(br.readLine());


                for (int i=Lowerlimit;i<=upperlimit;i++){
                        int count = 0;
                        for(int j=1;j<=i;j++){
                                if(i%j==0){

                                count++;
                                }

                        }
                        if (count>2){
                                System.out.println("Composite number is "+i);
                        }

                }

        }
}

Enter lower limit
1
Enter Upper limit
20
Composite number is 4
Composite number is 6
Composite number is 8
Composite number is 9
Composite number is 10
Composite number is 12
Composite number is 14
Composite number is 15
Composite number is 16
Composite number is 18
Composite number is 20