Code:--
import java.util.*;
       class StrongNumber{
        public static void main(String[] args){
                Scanner sc = new Scanner(System.in);
                System.out.println("Enter Starting number ");
                int start = sc.nextInt();
                System.out.println("enter Ending number ");
                int End = sc.nextInt();

		for(int i=1;i<start;i++){                
   			
			int num=i;
			int rem=0;
			int sum=0;
		                       while(num!=0){	
				       int fact=1;	       
					 rem=num%10;
				
				for(int j=1;j<=rem;j++){
					fact=fact*j;
				}
		  			sum=sum+fact;
					num=num/10;
				
				if(sum==num){
				System.out.println(i);
				}
		}
}
	}}

