ERROR-

Code:---
class SBDemo{
        public static void main(String[] args){
                String str1 = "Shashi";
                String str2 = new String("Bagal");
                StringBuffer str3 = new StringBuffer("Core2Web");

                String str4 = str3.concat(str1);
                System.out.println(str1);
                System.out.println(str2);
                System.out.println(str3);
                System.out.println(str4);


        }

}




Output:---
yogesh@Admin:~/String/StringBuffer/classCode/9-may$ javac program4.java
program4.java:7: error: cannot find symbol
                String str4 = str3.concat(str1);
                                  ^
  symbol:   method concat(String)
  location: variable str3 of type StringBuffer
1 error