If we dont pass any value to the array Elements.

Code :--

class Demo {
        public static void main(String[] args){
                int arr[] = new int[4];

                System.out.println(arr[0]);
                System.out.println(arr[1]);
                System.out.println(arr[2]);
                System.out.println(arr[3]);

        }

}


Output :---
0
0
0
0