Code:--
import java.util.Scanner;

class Demo{

        public static void main(String [] args){
                Scanner obj = new Scanner(System.in);

                System.out.println("Enter Your Dream Company");
                String name = obj.next();

                System.out.println("Enter Your Expected Salary Package");
                double salary = obj.nextDouble();

                System.out.println(name);
                System.out.println(salary);


        }


}


Output : -

Enter Your Dream Company
Amazon
Enter Your Expected Salary Package
4500000
Amazon
4500000.0