import java.io.*;
class Demo{

        public static void main(String[]args)throws IOException{

                BufferedReader br = new BufferedReader(new InputStreamReader(System.in));

                System.out.println("Enter array size : ");
                int size = Integer.parseInt(br.readLine());

                int arr[] = new int[size];

                int mult = 1;
                for(int i = 0;i < arr.length;i++){

                        arr[i] = Integer.parseInt(br.readLine());

                        if(arr[i]%2 == 0){

                                mult = mult * arr[i];
                        }
                }

                System.out.println("The sum of Even elements : "+mult);
        }
}