import java.io.*;
class ArrayDemo{

         void fun()throws IOException{

                BufferedReader br = new BufferedReader(new InputStreamReader(System.in));

                System.out.println("Enter Size of Array : ");
                int size = Integer.parseInt(br.readLine());

                int arr[] = new int[size];
                System.out.println("Enter Elements : ");
                for(int i = 0;i < arr.length;i++){

                        arr[i] = Integer.parseInt(br.readLine());
                }
                for(int i = 0;i < arr.length;i++){

                        int temp = arr[i];
                        int res = 0;
                        while(arr[i] != 0){

                                int x = arr[i]%10;
                                res = res * 10 + x;
                                arr[i] = arr[i]/10;
                        }
                        if(res == temp){

                                System.out.print(temp+" is a palindrome no at index : "+i);
                        }
                }

                System.out.println();
         }

        public static void main(String[]args)throws IOException{

                ArrayDemo obj = new ArrayDemo();
                obj.fun();
        }
}