Print :-
14	15	16	17
15	16	17	18
16	17	18	19
17	18	19	20

Program :-

class demo{
        public static void main(String[] args){
                int a=14;
                for(int i=1;i<=4;i++){
                        int count=a;
                        for(int j=1;j<=4;j++){
                                System.out.print(count +" ");
                                count++;

                        }
                        a++;
                        System.out.println();

                }
         }

}