ERROR

Code : --

class Demo{

        void fun(int x){
                int y = x + 10;
        }

        public static void main(String[] args){
                Demo obj = new Demo();
                System.out.println(obj.fun(10));
        }
}


Output : --

program1.java:9: error: 'void' type not allowed here
                System.out.println(obj.fun(10));
                                          ^
1 error