Q. Write a program to print the sum of the all even numbers and multiplication of all odd numbers.



class demo{
        public static void main(String[] args){
                int n=10;
                int sum=0;
                int mul=1;

                for(int i=1;i<=n;i++){
                        if(i%2==0){

                                sum=sum+i;
                        }
                        else{
                                mul=mul*i;
                        }

                }
                System.out.println(sum);
                System.out.println(mul);
         }

}