Q. Write a program to print countdown of days to submit the assignment

class demo{
        public static void main(String[] args){
                int N=7;

                for(int i=N;i>=0;i--){
                        if(i==0){
                                System.out.println(i+"Assignment is Overdue");
                                break;

                        }

                        System.out.println(i+"Days is remaining");

                }



         }

}