Method 4 : compareTo

Code:---
class StringMethod4{
        public static void main(String[] args){
                String str1 = "ashish";
                String str2 = "Ashish";

                System.out.println(str1.compareTo(str2));


        }


}


Output:--
32