Code:--
class AppendDemo{
        public static void main(String[] args){
                StringBuffer sb = new StringBuffer("Yogesh");

                sb.append("Kedar");
                System.out.println(sb);

        }

}


Output:--
YogeshKedar