Code:--
class InsertDemo{
        public static void main(String[] args){
                StringBuffer sb = new StringBuffer("Yogesh");

                sb.insert(2,"Kedar");
                System.out.println(sb);

        }

}




Output:---
YoKedargesh