Code:---
class ReverseDemo{
        public static void main(String[] args){
                StringBuffer sb = new StringBuffer("Yogesh");

                sb.reverse();
                System.out.println(sb);

        }

}



Output:--
hsegoY