Q1. Print 5 Stars

class demo{
        public static void main(String[] args){
                for (int i=1;i<=5;i++){
                        System.out.print("*");


                }



         }

}