Q7 Print 
   3 3 3
   4 4 4 
   5 5 5 

Program:-

class demo{
        public static void main(String[] args){
                for(int i=1;i<=3;i++){
                        int sum=0;
                        for(int j=1;j<=3;j++){

                                System.out.print(i + 2 +" ");



                        }
                        System.out.println();

                }



         }

}