// factorial program
class Demo{
        public static void main(String[] args){
                 int fact=1;
                 int N=6;
                for(int i=1 ; i<=6; i++){
                        fact= fact * i;
                }
                System.out.println(fact);
        }
}
