Print

c2w c2w c2w
c2w c2w c2w
c2w c2w c2w

Program:-


class demo{
        public static void main(String[] args){

                for(int i=1;i<=3;i++){
                        for(int j=1;j<=3;j++){
                                System.out.print("c2w" + " ");

                        }
                        System.out.println();


                }
         }

}