Print 
4	5	6	7
4	5	6	7
4	5	6	7
4	5	6	7


Program:-


class demo{
        public static void main(String[] args){
                for(int i=1;i<=4;i++){
                        int n=4;
                        for(int j=1;j<=4;j++){
                                System.out.print(n+" ");
                                n++;



                        }
                        System.out.println();

                }





         }

}