Code:---
class Library{
        int noOfSections = 8 ;
        String LibraryName = "JSPM";

        void Reader(){
                System.out.println(noOfSections );
                System.out.println(LibraryName);

        }
}
class Student{
        public static void main(String[] args){
                Library obj = new Library();
                obj.Reader();

        }


}




Output:---

8
JSPM