Code:---
class Demo{
        public static void main(String[] args){
                String str1 = "Core2Web";
                String str2 = new String("Core2Web");
                String str3 = "Core2Web";
                String str4 = new String("Core2Web");

                System.out.println(System.identityHashCode(str1));
                System.out.println(System.identityHashCode(str2));
                System.out.println(System.identityHashCode(str3));
                System.out.println(System.identityHashCode(str4));

        }

}


Output:---
225534817
1878246837
225534817
929338653